Timestamp,protocol-id,latitude,longitude
3/15/2022 10:26:41,1,51.98515701,51.98515701
3/16/2022 10:26:41,1,51.98707581,5.942230225
3/17/2022 10:26:41,1,51.98707581,5.942230225
3/18/2022 10:26:41,1,0,0
3/19/2022 10:26:41,1,51.98962402,5.947676659
3/20/2022 10:26:41,1,51.98933411,5.948078156
3/21/2022 10:26:41,1,51.98929977,5.947958469
3/22/2022 10:26:41,1,51.98929977,5.947945118
3/23/2022 10:26:41,1,51.98919296,5.947828293
3/24/2022 10:26:41,1,51.98936844,5.94791317
3/25/2022 10:26:41,1,51.98928833,5.947889805
3/26/2022 10:26:41,1,51.98950958,5.947824955
3/27/2022 10:26:41,1,51.98929977,5.947916508
3/28/2022 10:26:41,1,51.98931122,5.947766781
3/29/2022 10:26:41,1,0,0
3/30/2022 10:26:41,1,0,0
3/31/2022 10:26:41,1,0,0
4/1/2022 10:26:41,1,0,0
4/2/2022 10:26:41,1,0,0
4/3/2022 10:26:41,1,51.98778152,5.942946434
4/4/2022 10:26:41,1,51.98778152,5.942946434
4/5/2022 10:26:41,1,51.98514938,5.920081615
4/6/2022 10:26:41,1,51.98514938,5.920081615
4/7/2022 10:26:41,1,0,0
4/8/2022 10:26:41,1,0,0
4/9/2022 10:26:41,1,0,0
3/17/2022 11:50:38,1,51.9733963,5.932048321
3/17/2022 11:51:49,1,51.973423,5.932091713
3/17/2022 11:53:01,1,51.97344971,5.932089806
3/17/2022 11:54:13,1,51.97341919,5.932089806
3/17/2022 11:55:24,1,51.97344589,5.932086468
3/17/2022 11:56:37,1,51.97344589,5.932081699
3/17/2022 11:57:48,1,51.97343826,5.932066441
3/17/2022 11:59:00,1,51.97344208,5.93204689
3/17/2022 12:00:12,1,51.97343826,5.932149887
3/17/2022 12:01:24,1,51.97342682,5.932181835
3/17/2022 12:02:36,1,51.97346878,5.932123184
3/17/2022 12:03:49,1,51.97340393,5.932106495
3/17/2022 12:05:01,1,51.97342682,5.932095051
3/17/2022 12:06:14,1,51.97342682,5.932108402
3/17/2022 12:07:25,1,51.97346497,5.93215847
3/17/2022 12:08:37,1,51.97312546,5.931311607
3/17/2022 12:09:49,1,51.97153091,5.936001778
3/17/2022 12:11:01,1,51.97308731,5.940130234
3/17/2022 12:12:13,1,51.97805405,5.943073273
3/17/2022 12:13:25,1,51.98130798,5.947209835
3/17/2022 12:14:37,1,51.98325729,5.953953266
3/17/2022 12:15:50,1,51.98402405,5.954315186
3/17/2022 12:17:01,1,51.98407364,5.95424509
3/17/2022 12:18:14,1,51.98398972,5.954278469
3/17/2022 12:19:25,1,51.98411179,5.954251766
3/17/2022 12:20:37,1,51.98403168,5.9542799
3/17/2022 12:21:50,1,51.98407745,5.95426321
3/17/2022 12:23:02,1,51.98408508,5.954255104
3/17/2022 12:24:15,1,51.9840889,5.954201698
3/17/2022 12:25:28,1,51.98413849,5.954195023
3/17/2022 12:26:39,1,51.98469162,5.953658104
3/17/2022 12:27:51,1,51.98435974,5.950023174
3/17/2022 12:29:03,1,51.98539352,5.952575207
3/17/2022 12:30:16,1,51.98736191,5.952280045
3/17/2022 12:31:28,1,51.98726654,5.95152998
3/17/2022 15:00:13,1,0,0
3/17/2022 15:01:24,1,51.98750687,5.95212841
3/17/2022 15:03:50,1,51.98416901,5.95544672
3/17/2022 15:05:01,1,51.98017502,5.95949316
3/17/2022 15:06:14,1,51.97913742,5.960529804
3/17/2022 15:07:25,1,51.9767189,5.963356495
3/17/2022 15:08:38,1,51.97859955,5.969985008
3/17/2022 15:09:49,1,51.97439194,5.989971638
3/17/2022 15:11:01,1,51.96430206,6.009916782
3/17/2022 15:12:15,1,51.95767212,6.022456646
3/17/2022 15:13:26,1,51.95127106,6.037186623
3/17/2022 15:14:37,1,51.94192123,6.047064781
3/17/2022 15:15:49,1,51.93961334,6.05660677
3/17/2022 15:17:02,1,51.93743515,6.062548161
3/17/2022 15:18:14,1,51.93006516,6.056898117
3/17/2022 15:19:26,1,51.92554474,6.060773373
3/17/2022 15:20:37,1,51.92207336,6.074319839
3/17/2022 15:21:49,1,51.9188385,6.087471485
3/17/2022 15:23:01,1,51.91508484,6.094651699
3/17/2022 15:24:14,1,51.90927124,6.106188297
3/17/2022 15:25:25,1,51.90162277,6.109561443
3/17/2022 15:26:37,1,51.8908577,6.101856709
3/17/2022 15:27:48,1,51.89084244,6.093450069
3/17/2022 15:29:00,1,51.89142227,6.089476585
3/17/2022 15:30:11,1,51.89138031,6.0896101
3/17/2022 15:31:24,1,51.88626862,6.088751793
3/17/2022 15:32:36,1,51.88346481,6.073588371
3/17/2022 15:33:49,1,51.88547516,6.050456524
